hw4
…
3.

a. Reproduce above plot. Visualize and explain some prominent features you observe. For example, what happened at points 1-5?

air_traf <- all %>%
  select(year, month, dayofmonth, origin, dest) %>%
  filter(year >= 1998) %>%
  filter(origin == 'LAX'|dest == 'LAX') %>%
  group_by(year, month, dayofmonth) %>%
  summarize(cnt= n()) %>%
  collect()

air_traf

## # A tibble: 4,018 x 4
## # Groups:   year, month [?]
##     year month dayofmonth   cnt
##    <int> <int>      <int> <int>
##  1  1998     1          1   926
##  2  1998     1          2   993
##  3  1998     1          3   950
##  4  1998     1          4  1011
##  5  1998     1          5  1051
##  6  1998     1          6  1031
##  7  1998     1          7  1020
##  8  1998     1          8  1020
##  9  1998     1          9  1021
## 10  1998     1         10   902
## # ... with 4,008 more rows
…
